<svg width="54" height="19" viewBox="0 0 54 19" fill="none" xmlns="http://www.w3.org/2000/svg">
  <path d="M44.5718 0.999466L53.1427 9.57031L44.5718 18.1412" stroke="#1890FF" />
  <path d="M9.57076 0.999466L0.999909 9.57031L9.57076 18.1412" stroke="#1890FF" />
  <path d="M12.001 9.5H42.001" stroke="black" stroke-opacity="0.45" />
</svg>
