<svg width="16" height="16" viewBox="0 0 16 16" fill="none"
     xmlns="http://www.w3.org/2000/svg">
  <circle cx="8" cy="8" r="7.5" stroke="#F5222D"/>
  <path d="M2.67578 2.67601L13.324 13.3242" stroke="#F5222D"/>
  <path d="M13.3242 2.67578L2.67602 13.324" stroke="#F5222D"/>
</svg>
