<svg width="24" height="24" viewBox="0 0 24 24" fill="none" xmlns="http://www.w3.org/2000/svg">
  <path fill-rule="evenodd" clip-rule="evenodd"
        d="M16.725 7.48457H8.54531C7.12734 7.48457 5.79375 8.0377 4.79063 9.04082C3.7875 10.0439 3.23438 11.3799 3.23438 12.7979C3.23438 13.2643 2.85703 13.6416 2.39062 13.6416C1.92422 13.6416 1.54688 13.2643 1.54688 12.7979C1.54688 10.9275 2.27578 9.16973 3.59531 7.84785C4.91719 6.52598 6.675 5.79707 8.54531 5.79707H16.6289L13.8117 2.97988C13.4812 2.65176 13.4812 2.11738 13.8117 1.78691C14.1398 1.45645 14.6742 1.45645 15.0047 1.78691L19.3125 6.09238C19.4695 6.25176 19.5586 6.46504 19.5586 6.69004C19.5586 6.91504 19.4719 7.12832 19.3125 7.2877L15.1289 11.4713C14.9625 11.6354 14.7492 11.7174 14.5312 11.7174C14.3133 11.7174 14.0977 11.6354 13.9336 11.4713C13.6031 11.1432 13.6031 10.6088 13.9336 10.2783L16.725 7.48457ZM20.768 11.2275C20.768 10.7611 21.1453 10.3838 21.6117 10.3838C22.0781 10.3838 22.4555 10.7611 22.4578 11.2252C22.4578 13.0955 21.7289 14.8533 20.407 16.1752C19.0852 17.4971 17.3273 18.226 15.457 18.226H7.37344L10.193 21.0455C10.5234 21.3736 10.5234 21.908 10.193 22.2385C10.0266 22.4025 9.81328 22.4846 9.59531 22.4846C9.37734 22.4846 9.16172 22.4025 8.99766 22.2385L4.69219 17.933C4.53516 17.7736 4.44609 17.5604 4.44609 17.3354C4.44609 17.1104 4.53281 16.8971 4.69219 16.7377L8.87578 12.5541C9.20391 12.2236 9.73828 12.2236 10.0688 12.5541C10.3992 12.8822 10.3992 13.4166 10.0688 13.7471L7.275 16.5408H15.4547C16.875 16.5408 18.2086 15.9877 19.2117 14.9846C20.2148 13.9814 20.768 12.6455 20.768 11.2275Z"
        fill="#42ABFD" />
</svg>
