<svg width="17" height="18" viewBox="0 0 17 18" fill="none" xmlns="http://www.w3.org/2000/svg">
  <path fill-rule="evenodd" clip-rule="evenodd"
        d="M15.8671 2.08177C14.357 0.5717 11.9031 0.5717 10.3931 2.08177L6.98206 5.49278C6.71322 5.76162 6.71322 6.19634 6.98206 6.46327C7.2509 6.73211 7.68561 6.73211 7.95255 6.46327L11.3636 3.05226C12.3379 2.07796 13.9223 2.07796 14.8966 3.05226C15.3675 3.52321 15.6288 4.1505 15.6288 4.81783C15.6288 5.48516 15.3694 6.11245 14.8966 6.58339L11.4856 9.9944C11.2167 10.2632 11.2167 10.698 11.4856 10.9649C11.619 11.0984 11.7945 11.1651 11.9718 11.1651C12.1491 11.1651 12.3226 11.0984 12.458 10.9649L15.869 7.55388C17.3772 6.04572 17.3772 3.58994 15.8671 2.08177ZM9.04709 12.4329L5.63799 15.8439C5.16704 16.3149 4.53975 16.5761 3.87242 16.5761C3.20509 16.5761 2.5778 16.3168 2.10686 15.8439C1.63591 15.3711 1.37279 14.7457 1.37279 14.0783C1.37279 13.411 1.6321 12.7837 2.10495 12.3128L5.51596 8.90176C5.7848 8.63293 5.7848 8.19821 5.51596 7.93128C5.24712 7.66244 4.81241 7.66244 4.54547 7.93128L1.13446 11.3404C0.402305 12.0725 0 13.0449 0 14.0783C0 15.1117 0.402305 16.0841 1.13446 16.8144C1.8895 17.5694 2.88096 17.9469 3.87052 17.9469C4.86198 17.9469 5.85344 17.5694 6.60657 16.8144L10.0176 13.4034C10.2864 13.1345 10.2864 12.6998 10.0176 12.4329C9.74874 12.166 9.31593 12.166 9.04709 12.4329ZM9.93928 9.01623L7.99449 10.961C7.85911 11.0945 7.68751 11.1612 7.5102 11.1612C7.33288 11.1612 7.15746 11.0945 7.024 10.961C6.75516 10.6941 6.75516 10.2594 7.024 9.99053L8.96879 8.04574C9.23572 7.7769 9.67044 7.7769 9.93928 8.04574C10.2081 8.31267 10.2081 8.74739 9.93928 9.01623Z"
        fill="#1890FF"/>
</svg>
