[
  {
    "checkin": "2019-08-26",
    "checkout": "2019-08-28",
    "nights": 2,
    "available": 10,
    "roomType": {
      "id": 2,
      "property_id": 1,
      "name": "Двухместный номер Делюкс",
      "max_persons": 2,
      "max_children": 1,
      "area": 20,
      "smoking": 0,
      "main_beds": [
        {
          "id": 3,
          "name": "1 двуспальная кровать",
          "amount": 1
        }
      ],
      "alt_beds": [
        {
          "id": 1,
          "name": "1 односпальная кровать",
          "amount": 2
        }
      ]
    },
    "rates": [
      {
        "id": 2,
        "property_id": 1,
        "name": "Люкс",
        "breakfast": 1,
        "lunch": 1,
        "dinner": 1,
        "occupancies": [
          {
            "occupancy": 2,
            "sum": 170000,
            "prices": [
              {
                "date": "2019-08-26",
                "price": 85000
              },
              {
                "date": "2019-08-27",
                "price": 85000
              }
            ]
          },
          {
            "occupancy": 1,
            "sum": 154700,
            "prices": [
              {
                "date": "2019-08-26",
                "price": 77350
              },
              {
                "date": "2019-08-27",
                "price": 77350
              }
            ]
          }
        ],
        "occupancies_local": [
          {
            "occupancy": 2,
            "sum": 166600,
            "prices": [
              {
                "date": "2019-08-26",
                "price": 83300
              },
              {
                "date": "2019-08-27",
                "price": 83300
              }
            ]
          },
          {
            "occupancy": 1,
            "sum": 151300,
            "prices": [
              {
                "date": "2019-08-26",
                "price": 75650
              },
              {
                "date": "2019-08-27",
                "price": 75650
              }
            ]
          }
        ]
      }
    ]
  }
]
